{
    "workbench.startupEditor": "newUntitledFile",
    "workbench.iconTheme": "material-icon-theme",
    "workbench.colorTheme": "One Dark Pro",
    "editor.fontSize": 10,
    "window.zoomLevel": 0,
    "editor.fontFamily": "'Fira Code Retina','Droid Sans Mono', 'monospace', monospace, 'Droid Sans Fallback'",
    "terminal.integrated.fontSize": 10,
    "terminal.integrated.fontFamily": "'Fira Code Retina'",
    "emmet.includeLanguages": {
        "javascript": "javascriptreact"
    },
    "eslint.autoFixOnSave": true,
    "editor.tabSize": 2,
    "editor.autoClosingBrackets": "always",
    "search.smartCase": true,
    "eslint.alwaysShowStatus": true,
    "eslint.runtime": "/usr/bin/node",
    "prettier.singleQuote": true,
    "editor.formatOnSave": true,
    "rest-client.fontSize": 12
}